%YAML 1.1
%TAG !u! tag:unity3d.com,2011:
--- !u!21 &2100000
Material:
  serializedVersion: 6
  m_ObjectHideFlags: 0
  m_CorrespondingSourceObject: {fileID: 0}
  m_PrefabInstance: {fileID: 0}
  m_PrefabAsset: {fileID: 0}
  m_Name: MI_Atlas5_Pumpkin
  m_Shader: {fileID: -6465566751694194690, guid: 4d5dcb5c4fceace429a27f072891385e,
    type: 3}
  m_ShaderKeywords: 
  m_LightmapFlags: 4
  m_EnableInstancingVariants: 0
  m_DoubleSidedGI: 0
  m_CustomRenderQueue: -1
  stringTagMap: {}
  disabledShaderPasses: []
  m_SavedProperties:
    serializedVersion: 3
    m_TexEnvs:
    - Alpha:
        m_Texture: {fileID: 0}
        m_Scale: {x: 1, y: 1}
        m_Offset: {x: 0, y: 0}
    - Color_Input:
        m_Texture: {fileID: 2800000, guid: 70dc00d492d31354a8ec39d21a897d93, type: 3}
        m_Scale: {x: 1, y: 1}
        m_Offset: {x: 0, y: 0}
    - Emissive:
        m_Texture: {fileID: 0}
        m_Scale: {x: 1, y: 1}
        m_Offset: {x: 0, y: 0}
    - Normals:
        m_Texture: {fileID: 0}
        m_Scale: {x: 1, y: 1}
        m_Offset: {x: 0, y: 0}
    - Roughness:
        m_Texture: {fileID: 0}
        m_Scale: {x: 1, y: 1}
        m_Offset: {x: 0, y: 0}
    - _BaseMap:
        m_Texture: {fileID: 0}
        m_Scale: {x: 1, y: 1}
        m_Offset: {x: 0, y: 0}
    - _BumpMap:
        m_Texture: {fileID: 0}
        m_Scale: {x: 1, y: 1}
        m_Offset: {x: 0, y: 0}
    - _EmissionMap:
        m_Texture: {fileID: 0}
        m_Scale: {x: 1, y: 1}
        m_Offset: {x: 0, y: 0}
    - _MainTex:
        m_Texture: {fileID: 0}
        m_Scale: {x: 1, y: 1}
        m_Offset: {x: 0, y: 0}
    - _MetallicGlossMap:
        m_Texture: {fileID: 0}
        m_Scale: {x: 1, y: 1}
        m_Offset: {x: 0, y: 0}
    - _OcclusionMap:
        m_Texture: {fileID: 0}
        m_Scale: {x: 1, y: 1}
        m_Offset: {x: 0, y: 0}
    - _SpecGlossMap:
        m_Texture: {fileID: 0}
        m_Scale: {x: 1, y: 1}
        m_Offset: {x: 0, y: 0}
    m_Floats:
    - Alpha_Mult: 1
    - Alpha_clipping: 0
    - Boolean_978B305E: 0
    - Emissive_Boost: 2.09
    - Page_organisation_does_nothing: 0
    - Page_organisation_does_nothing_1: 0
    - Page_organisation_does_nothing_2: 0
    - Page_organisation_does_nothing_3: 0
    - Page_organisation_does_nothing_4: 0
    - Page_organisation_does_nothing_5: 0
    - Page_organisation_does_nothing_6: 0
    - Page_organisation_does_nothing_7: 0
    - Page_organisation_does_nothing_8: 0
    - Roughness_Multiplyer: 0
    - Vector1_2F812726: 0
    - Vector1_644DEA8F: 0
    - Vector1_6E3B24DF: 0.1
    - Vector1_9A302AF0: 0
    - _AlphaClip: 0
    - _Blend: 0
    - _BumpScale: 1
    - _Cull: 2
    - _Cutoff: 0.5
    - _DstBlend: 0
    - _EnvironmentReflections: 1
    - _GlossMapScale: 0
    - _Glossiness: 0
    - _GlossyReflections: 0
    - _Metallic: 0
    - _OcclusionStrength: 1
    - _QueueOffset: 0
    - _ReceiveShadows: 1
    - _Smoothness: 0.5
    - _SmoothnessTextureChannel: 0
    - _SpecularHighlights: 1
    - _SrcBlend: 1
    - _Surface: 0
    - _WorkflowMode: 1
    - _ZWrite: 1
    m_Colors:
    - Color_15E73A7D: {r: 0, g: 0, b: 0, a: 0}
    - Color_26877242: {r: 0.9339623, g: 0.86574125, b: 0.24230155, a: 0}
    - Color_450048F2: {r: 0.70980394, g: 0.85098046, b: 0.1137255, a: 1}
    - Color_55EFAAE3: {r: 0.7137255, g: 0.8117648, b: 0.11764707, a: 1}
    - Color_88AF32A1: {r: 0, g: 0, b: 0, a: 0}
    - Color_Multiplier: {r: 1, g: 1, b: 1, a: 0}
    - Emissvie_Color: {r: 0.7411765, g: 0.5686275, b: 0.14117648, a: 0}
    - Position: {r: 0, g: 0, b: 0, a: 0}
    - Tilling: {r: 1, g: 1, b: 0, a: 0}
    - Vector2_89574B11: {r: 1, g: 1, b: 0, a: 0}
    - Vector2_AE4E82EF: {r: 0, g: 0, b: 0, a: 0}
    - _BaseColor: {r: 0.5, g: 0.5, b: 0.5, a: 1}
    - _Color: {r: 0.5, g: 0.5, b: 0.5, a: 1}
    - _EmissionColor: {r: 0, g: 0, b: 0, a: 1}
    - _SpecColor: {r: 0.19999996, g: 0.19999996, b: 0.19999996, a: 1}
--- !u!114 &3806655905882120193
MonoBehaviour:
  m_ObjectHideFlags: 11
  m_CorrespondingSourceObject: {fileID: 0}
  m_PrefabInstance: {fileID: 0}
  m_PrefabAsset: {fileID: 0}
  m_GameObject: {fileID: 0}
  m_Enabled: 1
  m_EditorHideFlags: 0
  m_Script: {fileID: 11500000, guid: d0353a89b1f911e48b9e16bdc9f2e058, type: 3}
  m_Name: 
  m_EditorClassIdentifier: 
  version: 1
