%YAML 1.1
%TAG !u! tag:unity3d.com,2011:
--- !u!114 &11400000
MonoBehaviour:
  m_ObjectHideFlags: 0
  m_CorrespondingSourceObject: {fileID: 0}
  m_PrefabInstance: {fileID: 0}
  m_PrefabAsset: {fileID: 0}
  m_GameObject: {fileID: 0}
  m_Enabled: 1
  m_EditorHideFlags: 0
  m_Script: {fileID: 11500000, guid: f187312dd81c0094a852dbf138cdfeef, type: 3}
  m_Name: Stage1Loot
  m_EditorClassIdentifier: 
  _lootPoolItems:
  - _lootObject: {fileID: 9069267516539576746, guid: 0e0b02787005898429160d420efe1cfe,
      type: 3}
    _lootPositions:
    - {x: 5.8691144, y: 1.461078, z: -7.4712644}
    - {x: -6.820274, y: 1.3558507, z: 8.511373}
    - {x: -4.599159, y: 1.8063928, z: 8.604794}
  - _lootObject: {fileID: 2597639375368972289, guid: 9ca529bad55a3564f966457931681c69,
      type: 3}
    _lootPositions:
    - {x: -2.1916943, y: 1.3069633, z: 4.2794056}
    - {x: 15.092656, y: 1.6090713, z: -4.151697}
    - {x: 16.784649, y: 1.0825973, z: -6.0270653}
  - _lootObject: {fileID: 7421967124242825932, guid: 04c95025235872c42a899a451c28b37b,
      type: 3}
    _lootPositions:
    - {x: 6.1601562, y: 1.395697, z: -10.525675}
    - {x: 6.0591908, y: 1.2026442, z: -9.031992}
    - {x: 16.61376, y: 1.0228901, z: -2.1204119}
  - _lootObject: {fileID: 3858891585358717177, guid: e67d874c595419f47857d275f6662cbf,
      type: 3}
    _lootPositions:
    - {x: 6.029483, y: 1.3152164, z: -6.0616856}
    - {x: 14.056512, y: 1.1912116, z: -10.669064}
    - {x: 15.036423, y: 1.2958704, z: -13.617039}
  - _lootObject: {fileID: 835332794914010703, guid: e89fd64a333140745bdc01eb866814be,
      type: 3}
    _lootPositions:
    - {x: -12.764313, y: 0.6189903, z: 14.636814}
    - {x: -12.534215, y: 0.7477256, z: 11.210326}
    - {x: -6.8270235, y: 0.5672034, z: 11.93015}
  - _lootObject: {fileID: 5463350641491019799, guid: b760a9ccb28a33e40a845acfb596e2e9,
      type: 3}
    _lootPositions:
    - {x: -4.3812513, y: 1.0174419, z: 3.76258}
    - {x: -11.217307, y: 1.4977461, z: -2.9097223}
    - {x: -1.868494, y: 1.4766548, z: -12.47522}
  - _lootObject: {fileID: 8304359786301203622, guid: e705f71794555f34f9c17f576d0903ad,
      type: 3}
    _lootPositions:
    - {x: 0.29451776, y: 1.7242581, z: -1.0901654}
    - {x: 2.672142, y: 1.6029605, z: -1.4255908}
    - {x: -8.313791, y: 1.4143964, z: -10.136502}
  - _lootObject: {fileID: 3486100116783755366, guid: 8db2021135ee19840a167a31fb9c7974,
      type: 3}
    _lootPositions:
    - {x: -8.746501, y: 0.9381634, z: 3.76258}
    - {x: -14.418549, y: 0.7869996, z: -12.507301}
    - {x: 0.79238605, y: 1.1125637, z: -13.813179}
  - _lootObject: {fileID: 4299034883192435659, guid: f7bdbd80206c535419b34609d4c68008,
      type: 3}
    _lootPositions:
    - {x: 12.07779, y: 1.284577, z: -8.006258}
    - {x: 14.762461, y: 1.1863259, z: -10.616241}
    - {x: 13.944099, y: 1.1949002, z: -12.493816}
  - _lootObject: {fileID: 4299034883192435659, guid: 7be1fb96c568dd54f8043cc54b5475e8,
      type: 3}
    _lootPositions:
    - {x: -2.1487296, y: 1.2733713, z: 3.76258}
    - {x: -14.382519, y: 1.7615093, z: 1.2654544}
    - {x: -10.162336, y: 1.5935913, z: 3.603177}
